<?xml version="1.0" standalone="no"?>
<!DOCTYPE svg PUBLIC "-//W3C//DTD SVG 1.1//EN" "http://www.w3.org/Graphics/SVG/1.1/DTD/svg11.dtd" >
<svg xmlns="http://www.w3.org/2000/svg">
<metadata>Generated by IcoMoon</metadata>
<defs>
<font id="icomoon" horiz-adv-x="1024">
<font-face units-per-em="1024" ascent="960" descent="-64" />
<missing-glyph horiz-adv-x="1024" />
<glyph unicode="&#x20;" horiz-adv-x="512" d="" />
<glyph unicode="&#xe900;" glyph-name="addressbook" d="M928-64h-704c-17.664 0-32 14.304-32 32v32h-96c-17.696 0-32 14.304-32 32v64c0 17.696 14.304 32 32 32h96v64h-96c-17.696 0-32 14.304-32 32v64c0 17.696 14.304 32 32 32h96v64h-96c-17.696 0-32 14.304-32 32v64c0 17.696 14.304 32 32 32h96v64h-96c-17.696 0-32 14.304-32 32v64c0 17.696 14.304 32 32 32h96v64h-96c-17.696 0-32 14.304-32 32v64c0 17.696 14.304 32 32 32h96v32c0 17.696 14.336 32 32 32h704c17.696 0 32-14.304 32-32v-960c0-17.696-14.304-32-32-32zM192 864h-64c-17.696 0-32-14.304-32-32s14.304-32 32-32h64c17.696 0 32 14.304 32 32s-14.304 32-32 32zM192 672h-64c-17.696 0-32-14.304-32-32s14.304-32 32-32h64c17.696 0 32 14.304 32 32s-14.304 32-32 32zM192 480h-64c-17.696 0-32-14.304-32-32s14.304-32 32-32h64c17.696 0 32 14.304 32 32s-14.304 32-32 32zM192 288h-64c-17.696 0-32-14.304-32-32s14.304-32 32-32h64c17.696 0 32 14.304 32 32s-14.304 32-32 32zM192 96h-64c-17.696 0-32-14.304-32-32s14.304-32 32-32h64c17.696 0 32 14.304 32 32s-14.304 32-32 32zM768 292c0 54.56-67.776 74.144-157.184 82.336 3.712 2.272 7.104 6.016 10.464 9.664h-13.28c17.696 0 32 14.304 32 32v192c0 17.696-14.304 32-32 32h-64c-17.696 0-32-14.304-32-32v-192c0-17.696 14.304-32 32-32h-13.28c3.36-3.648 6.784-7.36 10.464-9.664-89.408-8.192-157.184-28.512-157.184-82.336v-36h384v36z" />
<glyph unicode="&#xe901;" glyph-name="checkmark" d="M927.936 687.008l-68.288 68.288c-12.608 12.576-32.96 12.576-45.536 0l-409.44-409.44-194.752 196.16c-12.576 12.576-32.928 12.576-45.536 0l-68.288-68.288c-12.576-12.608-12.576-32.96 0-45.536l285.568-287.488c12.576-12.576 32.96-12.576 45.536 0l500.736 500.768c12.576 12.544 12.576 32.96 0 45.536z" />
<glyph unicode="&#xe902;" glyph-name="add" d="M810 384.667h-256v-256h-84v256h-256v84h256v256h84v-256h256v-84z" />
<glyph unicode="&#xe903;" glyph-name="add2" d="M1024 472.381h-487.619v487.619h-48.762v-487.619h-487.619v-48.762h487.619v-487.619h48.762v487.619h487.619z" />
<glyph unicode="&#xe904;" glyph-name="checked" d="M970.607 802.67l-602.559-602.554-314.655 314.65-53.393-53.393 368.048-368.043 655.952 655.947z" />
<glyph unicode="&#xe905;" glyph-name="unchecked" d="M1024 896.66l-63.34 63.34-448.662-448.659-448.659 448.659-63.34-63.34 448.659-448.659-448.659-448.662 63.34-63.34 448.659 448.662 448.662-448.662 63.34 63.34-448.662 448.662z" />
<glyph unicode="&#xea0a;" glyph-name="plus" d="M992 576h-352v352c0 17.672-14.328 32-32 32h-192c-17.672 0-32-14.328-32-32v-352h-352c-17.672 0-32-14.328-32-32v-192c0-17.672 14.328-32 32-32h352v-352c0-17.672 14.328-32 32-32h192c17.672 0 32 14.328 32 32v352h352c17.672 0 32 14.328 32 32v192c0 17.672-14.328 32-32 32z" />
</font></defs></svg>